<?xml version="1.0" encoding="UTF-8"?>
<robot generator="Robot 4.0 (Python 3.8.5 on linux)" generated="20210406 00:55:47.598" rpa="false" schemaversion="2">
<suite id="s1" name="Get with param" source="/home/aman/PycharmProjects/Rest_API/Test_Cases/Rest_basic/Get_with_param.robot">
<test id="s1-t1" name="Validate Get Request with Param">
<kw name="Create Session" library="RequestsLibrary">
<arg>Get_param</arg>
<arg>${Base_url}</arg>
<doc>Create Session: create a HTTP session to a server</doc>
<msg timestamp="20210406 00:55:47.930" level="INFO">Creating Session using : alias=Get_param, url=http://reqres.in, headers={},                     cookies={}, auth=None, timeout=None, proxies=None, verify=False,                     debug=0 </msg>
<status status="PASS" starttime="20210406 00:55:47.929" endtime="20210406 00:55:47.930"/>
</kw>
<kw name="Create Dictionary" library="BuiltIn">
<var>&amp;{param}</var>
<arg>page=2</arg>
<doc>Creates and returns a dictionary based on the given ``items``.</doc>
<msg timestamp="20210406 00:55:47.931" level="INFO">&amp;{param} = { page=2 }</msg>
<status status="PASS" starttime="20210406 00:55:47.931" endtime="20210406 00:55:47.931"/>
</kw>
<kw name="Get Request" library="RequestsLibrary">
<var>${response}</var>
<arg>Get_param</arg>
<arg>/api/users</arg>
<arg>params=${param}</arg>
<doc>*DEPRECATED* Please use `GET On Session` instead.</doc>
<msg timestamp="20210406 00:55:47.932" level="WARN">Keyword 'RequestsLibrary.Get Request' is deprecated. Please use `GET On Session` instead.</msg>
<msg timestamp="20210406 00:55:49.252" level="INFO">GET Request : url=http://reqres.in/api/users?page=2 (redirected) 
 path_url=/api/users?page=2 
 headers={'User-Agent': 'python-requests/2.25.1', 'Accept-Encoding': 'gzip, deflate', 'Accept': '*/*', 'Connection': 'keep-alive'} 
 body=None 
 </msg>
<msg timestamp="20210406 00:55:49.253" level="INFO">GET Response : url=https://reqres.in/api/users?page=2 
 status=200, reason=OK 
 headers={'Date': 'Mon, 05 Apr 2021 19:25:49 GMT', 'Content-Type': 'application/json; charset=utf-8', 'Transfer-Encoding': 'chunked', 'Connection': 'keep-alive', 'Set-Cookie': '__cfduid=d70be088f2acf30d34e42e457447036511617650749; expires=Wed, 05-May-21 19:25:49 GMT; path=/; domain=.reqres.in; HttpOnly; SameSite=Lax; Secure', 'X-Powered-By': 'Express', 'Access-Control-Allow-Origin': '*', 'Etag': 'W/"406-ut0vzoCuidvyMf8arZpMpJ6ZRDw"', 'Via': '1.1 vegur', 'Cache-Control': 'max-age=14400', 'CF-Cache-Status': 'HIT', 'Age': '3801', 'cf-request-id': '094518a6ca00001740d720a000000001', 'Expect-CT': 'max-age=604800, report-uri="https://report-uri.cloudflare.com/cdn-cgi/beacon/expect-ct"', 'Report-To': '{"endpoints":[{"url":"https:\\/\\/a.nel.cloudflare.com\\/report?s=rarhG%2F4z3SW64rU42SOyVgH0EfZpHANrsVS0oiQxbGKDXccRpqU6LDkuHkUOXvWdEbQPcf4Ed%2FCNuxgj4kXzLKjn5BSPoQUSZJcFojGr2oHQ8K32XR0%3D"}],"max_age":604800,"group":"cf-nel"}', 'NEL': '{"max_age":604800,"report_to":"cf-nel"}', 'Vary': 'Accept-Encoding', 'Server': 'cloudflare', 'CF-RAY': '63b52a1e0ca21740-SIN', 'Content-Encoding': 'gzip', 'alt-svc': 'h3-27=":443"; ma=86400, h3-28=":443"; ma=86400, h3-29=":443"; ma=86400'} 
 body={"page":2,"per_page":6,"total":12,"total_pages":2,"data":[{"id":7,"email":"michael.lawson@reqres.in","first_name":"Michael","last_name":"Lawson","avatar":"https://reqres.in/img/faces/7-image.jpg"},{"id":8,"email":"lindsay.ferguson@reqres.in","first_name":"Lindsay","last_name":"Ferguson","avatar":"https://reqres.in/img/faces/8-image.jpg"},{"id":9,"email":"tobias.funke@reqres.in","first_name":"Tobias","last_name":"Funke","avatar":"https://reqres.in/img/faces/9-image.jpg"},{"id":10,"email":"byron.fields@reqres.in","first_name":"Byron","last_name":"Fields","avatar":"https://reqres.in/img/faces/10-image.jpg"},{"id":11,"email":"george.edwards@reqres.in","first_name":"George","last_name":"Edwards","avatar":"https://reqres.in/img/faces/11-image.jpg"},{"id":12,"email":"rachel.howell@reqres.in","first_name":"Rachel","last_name":"Howell","avatar":"https://reqres.in/img/faces/12-image.jpg"}],"support":{"url":"https://reqres.in/#support-heading","text":"To keep ReqRes free, contributions towards server costs are appreciated!"}} 
 </msg>
<msg timestamp="20210406 00:55:49.254" level="INFO">/home/aman/PycharmProjects/Rest_API/venv/lib/python3.8/site-packages/urllib3/connectionpool.py:1013: InsecureRequestWarning: Unverified HTTPS request is being made to host 'reqres.in'. Adding certificate verification is strongly advised. See: https://urllib3.readthedocs.io/en/latest/advanced-usage.html#ssl-warnings
  warnings.warn(</msg>
<msg timestamp="20210406 00:55:49.255" level="INFO">${response} = &lt;Response [200]&gt;</msg>
<status status="PASS" starttime="20210406 00:55:47.932" endtime="20210406 00:55:49.255"/>
</kw>
<kw name="Convert To String" library="BuiltIn">
<var>${statuscode}</var>
<arg>${response.status_code}</arg>
<doc>Converts the given item to a Unicode string.</doc>
<msg timestamp="20210406 00:55:49.258" level="INFO">${statuscode} = 200</msg>
<status status="PASS" starttime="20210406 00:55:49.256" endtime="20210406 00:55:49.259"/>
</kw>
<kw name="Should Be Equal" library="BuiltIn">
<arg>${statuscode}</arg>
<arg>200</arg>
<doc>Fails if the given objects are unequal.</doc>
<status status="PASS" starttime="20210406 00:55:49.259" endtime="20210406 00:55:49.260"/>
</kw>
<kw name="Log" library="BuiltIn">
<arg>${response.content}</arg>
<doc>Logs the given message with the given level.</doc>
<msg timestamp="20210406 00:55:49.262" level="INFO">{"page":2,"per_page":6,"total":12,"total_pages":2,"data":[{"id":7,"email":"michael.lawson@reqres.in","first_name":"Michael","last_name":"Lawson","avatar":"https://reqres.in/img/faces/7-image.jpg"},{"id":8,"email":"lindsay.ferguson@reqres.in","first_name":"Lindsay","last_name":"Ferguson","avatar":"https://reqres.in/img/faces/8-image.jpg"},{"id":9,"email":"tobias.funke@reqres.in","first_name":"Tobias","last_name":"Funke","avatar":"https://reqres.in/img/faces/9-image.jpg"},{"id":10,"email":"byron.fields@reqres.in","first_name":"Byron","last_name":"Fields","avatar":"https://reqres.in/img/faces/10-image.jpg"},{"id":11,"email":"george.edwards@reqres.in","first_name":"George","last_name":"Edwards","avatar":"https://reqres.in/img/faces/11-image.jpg"},{"id":12,"email":"rachel.howell@reqres.in","first_name":"Rachel","last_name":"Howell","avatar":"https://reqres.in/img/faces/12-image.jpg"}],"support":{"url":"https://reqres.in/#support-heading","text":"To keep ReqRes free, contributions towards server costs are appreciated!"}}</msg>
<status status="PASS" starttime="20210406 00:55:49.261" endtime="20210406 00:55:49.262"/>
</kw>
<status status="PASS" starttime="20210406 00:55:47.928" endtime="20210406 00:55:49.263"/>
</test>
<doc>Suite description</doc>
<status status="PASS" starttime="20210406 00:55:47.600" endtime="20210406 00:55:49.264"/>
</suite>
<statistics>
<total>
<stat pass="1" fail="0" skip="0">All Tests</stat>
</total>
<tag>
</tag>
<suite>
<stat pass="1" fail="0" skip="0" id="s1" name="Get with param">Get with param</stat>
</suite>
</statistics>
<errors>
<msg timestamp="20210406 00:55:47.932" level="WARN">Keyword 'RequestsLibrary.Get Request' is deprecated. Please use `GET On Session` instead.</msg>
</errors>
</robot>
